^C:\USERS\ANALYST\DOCUMENTS\WORKSPACE\VISUAL STUDIO 2015\PROJECTS\CXXHTTP\STDAFX.CXX
C:\WINDOWS\GLOBALIZATION\SORTING\SORTDEFAULT.NLS
C:\WINDOWS\SYSWOW64\NTDLL.DLL
C:\WINDOWS\SYSWOW64\KERNELBASE.DLL
C:\WINDOWS\SYSTEM32\FLTLIB.DLL
C:\WINDOWS\SYSWOW64\KERNEL32.DLL
C:\WINDOWS\SYSWOW64\OLE32.DLL
C:\WINDOWS\SYSWOW64\GDI32.DLL
C:\WINDOWS\SYSWOW64\USER32.DLL
C:\WINDOWS\SYSWOW64\SHELL32.DLL
D:\CXX\MICROSOFT VISUAL STUDIO\V14.0\VC\BIN\X86_AMD64\1049\CLUI.DLL
C:\WINDOWS\SYSTEM32\RSAENH.DLL
C:\WINDOWS\SYSTEM32\TZRES.DLL
C:\USERS\ANALYST\DOCUMENTS\WORKSPACE\VISUAL STUDIO 2015\PROJECTS\CXXHTTP\STDAFX.HXX
C:\USERS\ANALYST\DOCUMENTS\WORKSPACE\VISUAL STUDIO 2015\PROJECTS\CXXHTTP\TARGETVER.HXX
C:\PROGRAM FILES (X86)\WINDOWS KITS\8.1\INCLUDE\SHARED\SDKDDKVER.H
C:\PROGRAM FILES (X86)\WINDOWS KITS\10\INCLUDE\10.0.10240.0\UCRT\STDIO.H
C:\PROGRAM FILES (X86)\WINDOWS KITS\10\INCLUDE\10.0.10240.0\UCRT\CORECRT.H
D:\CXX\MICROSOFT VISUAL STUDIO\V14.0\VC\INCLUDE\VCRUNTIME.H
D:\CXX\MICROSOFT VISUAL STUDIO\V14.0\VC\INCLUDE\SAL.H
D:\CXX\MICROSOFT VISUAL STUDIO\V14.0\VC\INCLUDE\CONCURRENCYSAL.H
D:\CXX\MICROSOFT VISUAL STUDIO\V14.0\VC\INCLUDE\VADEFS.H
C:\PROGRAM FILES (X86)\WINDOWS KITS\10\INCLUDE\10.0.10240.0\UCRT\CORECRT_WSTDIO.H
C:\PROGRAM FILES (X86)\WINDOWS KITS\10\INCLUDE\10.0.10240.0\UCRT\CORECRT_STDIO_CONFIG.H
C:\PROGRAM FILES (X86)\WINDOWS KITS\10\INCLUDE\10.0.10240.0\UCRT\TCHAR.H
C:\PROGRAM FILES (X86)\WINDOWS KITS\10\INCLUDE\10.0.10240.0\UCRT\WCHAR.H
C:\PROGRAM FILES (X86)\WINDOWS KITS\10\INCLUDE\10.0.10240.0\UCRT\CORECRT_MEMCPY_S.H
C:\PROGRAM FILES (X86)\WINDOWS KITS\10\INCLUDE\10.0.10240.0\UCRT\ERRNO.H
D:\CXX\MICROSOFT VISUAL STUDIO\V14.0\VC\INCLUDE\VCRUNTIME_STRING.H
C:\PROGRAM FILES (X86)\WINDOWS KITS\10\INCLUDE\10.0.10240.0\UCRT\CORECRT_WCONIO.H
C:\PROGRAM FILES (X86)\WINDOWS KITS\10\INCLUDE\10.0.10240.0\UCRT\CORECRT_WCTYPE.H
C:\PROGRAM FILES (X86)\WINDOWS KITS\10\INCLUDE\10.0.10240.0\UCRT\CORECRT_WDIRECT.H
C:\PROGRAM FILES (X86)\WINDOWS KITS\10\INCLUDE\10.0.10240.0\UCRT\CORECRT_WIO.H
C:\PROGRAM FILES (X86)\WINDOWS KITS\10\INCLUDE\10.0.10240.0\UCRT\CORECRT_SHARE.H
C:\PROGRAM FILES (X86)\WINDOWS KITS\10\INCLUDE\10.0.10240.0\UCRT\CORECRT_WPROCESS.H
C:\PROGRAM FILES (X86)\WINDOWS KITS\10\INCLUDE\10.0.10240.0\UCRT\CORECRT_WSTDLIB.H
C:\PROGRAM FILES (X86)\WINDOWS KITS\10\INCLUDE\10.0.10240.0\UCRT\CORECRT_WSTRING.H
C:\PROGRAM FILES (X86)\WINDOWS KITS\10\INCLUDE\10.0.10240.0\UCRT\CORECRT_WTIME.H
C:\PROGRAM FILES (X86)\WINDOWS KITS\10\INCLUDE\10.0.10240.0\UCRT\SYS\STAT.H
C:\PROGRAM FILES (X86)\WINDOWS KITS\10\INCLUDE\10.0.10240.0\UCRT\SYS\TYPES.H
^C:\USERS\ANALYST\DOCUMENTS\WORKSPACE\VISUAL STUDIO 2015\PROJECTS\CXXHTTP\MAIN.CXX
C:\WINDOWS\GLOBALIZATION\SORTING\SORTDEFAULT.NLS
C:\WINDOWS\SYSWOW64\NTDLL.DLL
C:\WINDOWS\SYSWOW64\KERNELBASE.DLL
C:\WINDOWS\SYSTEM32\FLTLIB.DLL
C:\WINDOWS\SYSWOW64\KERNEL32.DLL
C:\WINDOWS\SYSWOW64\OLE32.DLL
C:\WINDOWS\SYSWOW64\GDI32.DLL
C:\WINDOWS\SYSWOW64\USER32.DLL
C:\WINDOWS\SYSWOW64\SHELL32.DLL
D:\CXX\MICROSOFT VISUAL STUDIO\V14.0\VC\BIN\X86_AMD64\1049\CLUI.DLL
C:\USERS\ANALYST\DOCUMENTS\WORKSPACE\VISUAL STUDIO 2015\PROJECTS\CXXHTTP\X64\RELEASE\CXXHTTP.PCH
C:\WINDOWS\SYSTEM32\RSAENH.DLL
C:\WINDOWS\SYSTEM32\TZRES.DLL
