^C:\USERS\ANALYST\DOCUMENTS\WORKSPACE\VISUAL STUDIO 2015\PROJECTS\CXXHTTP\STDAFX.CXX
C:\USERS\ANALYST\DOCUMENTS\WORKSPACE\VISUAL STUDIO 2015\PROJECTS\CXXHTTP\RELEASE\CXXHTTP.PCH
C:\USERS\ANALYST\DOCUMENTS\WORKSPACE\VISUAL STUDIO 2015\PROJECTS\CXXHTTP\RELEASE\VC140.PDB
C:\USERS\ANALYST\DOCUMENTS\WORKSPACE\VISUAL STUDIO 2015\PROJECTS\CXXHTTP\RELEASE\STDAFX.OBJ
^C:\USERS\ANALYST\DOCUMENTS\WORKSPACE\VISUAL STUDIO 2015\PROJECTS\CXXHTTP\MAIN.CXX
C:\USERS\ANALYST\DOCUMENTS\WORKSPACE\VISUAL STUDIO 2015\PROJECTS\CXXHTTP\RELEASE\VC140.PDB
C:\USERS\ANALYST\DOCUMENTS\WORKSPACE\VISUAL STUDIO 2015\PROJECTS\CXXHTTP\RELEASE\MAIN.OBJ
